dplyr::count misses factor levels: a case in comparing scRNAseq cell type abundance | DNA confesses Data speak
…
sample_id<- c(sample_id, "sample7_treatment_A", "sample7_treatment_B")
cell_id<- paste0("cell", 1:20000)

cell_df<- tibble::tibble(sample_id = sample(sample_id, size = length(cell_id), replace = TRUE), 
         cell_id = cell_id) %>%
  tidyr::separate(sample_id, into = c("sample_id", "group", "cluster_id"), sep= "_")

cell_num<- cell_df %>% 
  group_by(group, cluster_id, sample_id)%>%
  summarize(n=n()) 

cell_num

## # A tibble: 35 x 4
## # Groups:   group, cluster_id [6]
##    group   cluster_id sample_id     n
##    <chr>   <chr>      <chr>     <int>
##  1 control A          sample1     551
##  2 control A          sample2     546
##  3 control A          sample3     544
##  4 control A          sample4     585
##  5 control A          sample5     588
##  6 control A          sample6     542
##  7 control B          sample1     550
##  8 control B          sample2     562
##  9 control B          sample3     574
## 10 control B          sample4     563
## # … with 25 more rows
…
join the two dataframe to get percentage of cells per cluster per sample

cell_percentage<- left_join(cell_num, total_cells) %>%
  mutate(percentage = n/total)

## Joining, by = "sample_id"

cell_percentage

## # A tibble: 35 x 6
## # Groups:   group, cluster_id [6]
##    group   cluster_id sample_id     n total percentage
##    <chr>   <chr>      <chr>     <int> <int>      <dbl>
##  1 control A          sample1     551  1673      0.329
##  2 control A          sample2     546  1633      0.334
##  3 control A          sample3     544  1700      0.32 
##  4 control A          sample4     585  1711      0.342
##  5 control A          sample5     588  1768      0.333
##  6 control A          sample6     542  1727      0.314
##  7 control B          sample1     550  1673      0.329
##  8 control B          sample2     562  1633      0.344
##  9 control B          sample3     574  1700      0.338
## 10 control B          sample4     563  1711      0.329
## # … with 25 more rows
…
