add pct_in for each cluster for scRNAseq result table using list column | DNA confesses Data speak
…
Let’s nest the dataframe by gene

res_nest<- res %>%
  group_by(feature) %>% 
  tidyr::nest()

res_nest

## # A tibble: 19,089 x 2
## # Groups:   feature [19,089]
##    feature    data                                                         
##    <chr>      <S3: vctrs_list_of>                                          
##  1 AL627309.1 0                    , 1                    , 10            …
##  2 AL669831.5 0                   , 1                   , 10              …
##  3 FAM87B     0                    , 1                    , 10            …
##  4 LINC00115  0                    , 1                    , 10            …
##  5 FAM41C     0                   , 1                   , 10              …
##  6 AL645608.3 0                    , 1                    , 10            …
##  7 SAMD11     0                    , 1                    , 10            …
##  8 NOC2L      0                   , 1                   , 10              …
##  9 KLHL17     0                   , 1                   , 10              …
## 10 PLEKHN1    0                    , 1                    , 10            …
## # … with 19,079 more rows
…
