My odyssey of obtaining scRNAseq metadata | DNA confesses Data speak
…
merge the two tables

meta<- meta %>%
        left_join(clinical_data) %>%
        arrange(patient_id, biopsied_lesion) %>%
        select(-biopsied_lesion)

print(meta, n = 20)

#> # A tibble: 83 × 17
#>    ind        tissue     disease_state group      treatment sample_id patient_id
#>    <fct>      <chr>      <chr>         <chr>      <chr>     <chr>     <chr>     
#>  1 GSM5188381 blood      TNBC patient  Pre-treat… anti-PDL… Pre_P001… P001      
#>  2 GSM5188414 blood      TNBC patient  Post-trea… anti-PDL… Post_P00… P001      
#>  3 GSM5188376 blood      TNBC patient  Pre-treat… anti-PDL… Pre_P002… P002      
#>  4 GSM5188377 chest_wall TNBC patient  Pre-treat… anti-PDL… Pre_P002… P002      
#>  5 GSM5188410 blood      TNBC patient  Post-trea… anti-PDL… Post_P00… P002      
#>  6 GSM5188411 chest_wall TNBC patient  Post-trea… anti-PDL… Post_P00… P002      
#>  7 GSM5188437 blood      TNBC patient  Progressi… anti-PDL… Prog_P00… P002      
#>  8 GSM5188401 chest_wall TNBC patient  Post-trea… Chemo     Post_P00… P003      
#>  9 GSM5585280 blood      TNBC patient  Pre-treat… Anti-PD-… Pre_P004… P004      
#> 10 GSM5585281 chest_wall TNBC patient  Pre-treat… Anti-PD-… Pre_P004… P004      
#> 11 GSM5585282 blood      TNBC patient  Post-trea… Anti-PD-… Post_P00… P004      
#> 12 GSM5585283 blood      TNBC patient  Progressi… Anti-PD-… Prog_P00… P004      
#> 13 GSM5188398 blood      TNBC patient  Pre-treat… anti-PDL… Pre_P005… P005      
#> 14 GSM5188399 liver      TNBC patient  Pre-treat… anti-PDL… Pre_P005… P005      
#> 15 GSM5188430 blood      TNBC patient  Post-trea… anti-PDL… Post_P00… P005      
#> 16 GSM5188431 liver      TNBC patient  Post-trea… anti-PDL… Post_P00… P005      
#> 17 GSM5188367 blood      TNBC patient  Pre-treat… anti-PDL… Pre_P007… P007      
#> 18 GSM5188368 lymph_node TNBC patient  Pre-treat… anti-PDL… Pre_P007… P007      
#> 19 GSM5188402 blood      TNBC patient  Post-trea… anti-PDL… Post_P00… P007      
#> 20 GSM5188433 blood      TNBC patient  Progressi… anti-PDL… Prog_P00… P007      
#> # … with 63 more rows, and 10 more variables:
#> #   diameter_of_biopsied_lesion_mm <chr>, size_of_target_lesion_som_mm <chr>,
#> #   age <chr>, stage_tnm <chr>, pd_l1 <chr>, ti_ls_percent <chr>,
#> #   relative_change_of_target_lesions_8_weeks_after_treatment_initiation_vs_pre_treatment <chr>,
#> #   relative_change_of_biopsied_lesions_8_weeks_after_treatment_initiation_vs_pre_treatment <chr>,
#> #   clinical_efficacy_number <chr>, time_to_progression_months <chr>
…
