Matrix Factorization for single-cell RNAseq data | DNA confesses Data speak
…
ica_res$A[1:6, 1:6]

#>              [,1]        [,2]         [,3]        [,4]         [,5]        [,6]
#> [1,] -0.413376000  0.05376641  0.008726011  0.05786623  0.024026180 -0.03044887
#> [2,] -0.010226956 -0.19660527  0.026852085 -0.28306851  0.087733334 -0.53884708
#> [3,]  0.004566480  0.16617227 -0.031147751 -0.04875053 -0.018871534  0.12570441
#> [4,]  0.004287560  0.22019629  0.016369463  0.25592895 -1.013525472  0.13194196
#> [5,]  0.023103960  1.04656926 -0.019891674  0.99164725  0.008837725  0.58089991
#> [6,] -0.002186554 -0.18356631 -0.034622554 -0.21143961  0.001357102 -0.11419977

## let's extract the gene weights for component 12
tibble(gene = rownames(logNorm_mat), weights = ica_res$A[10,]) %>%
  arrange(desc(weights))

#> # A tibble: 2,000 x 2
#>    gene     weights
#>    <chr>      <dbl>
#>  1 HLA-DRA    1.12 
#>  2 CD74       0.982
#>  3 HLA-DPB1   0.897
#>  4 CD79A      0.866
#>  5 HLA-DRB1   0.834
#>  6 CD79B      0.821
#>  7 HLA-DPA1   0.807
#>  8 HLA-DQA1   0.765
#>  9 HLA-DQB1   0.704
#> 10 MS4A1      0.659
#> # … with 1,990 more rows
…
