…
best_penalty <- select_best(tune_res, metric = "accuracy")
best_penalty

#> # A tibble: 1 × 2
#>   penalty .config              
#>     <dbl> <chr>                
#> 1 0.00001 Preprocessor1_Model01

ridge_final <- finalize_workflow(ridge_workflow, best_penalty)
ridge_final_fit <- fit(ridge_final, data = data_train)

tidy(ridge_final_fit) %>% arrange(desc(abs(estimate)))

#> # A tibble: 2,000 × 3
#>    term        estimate penalty
#>    <chr>          <dbl>   <dbl>
#>  1 (Intercept)  -1.21   0.00001
#>  2 NKG7          0.0318 0.00001
#>  3 GZMB          0.0307 0.00001
#>  4 HLA-DRA      -0.0307 0.00001
#>  5 CTSW          0.0305 0.00001
#>  6 GNLY          0.0297 0.00001
#>  7 PRF1          0.0296 0.00001
#>  8 GZMA          0.0295 0.00001
#>  9 CD74         -0.0295 0.00001
#> 10 FGFBP2        0.0295 0.00001
#> # … with 1,990 more rows
…
