…
The last geneID column is a list of genes separated by /. If I want to
get a tidy dataframe, I can do

ego@result %>% 
        tidyr::separate_rows(geneID, sep="/")

#> # A tibble: 918 × 9
#>    ID       Description GeneRatio BgRatio   pvalue p.adjust  qvalue geneID Count
#>    <chr>    <chr>       <chr>     <chr>      <dbl>    <dbl>   <dbl> <chr>  <int>
#>  1 GO:0005… spindle     26/201    306/11… 1.07e-11  3.15e-9 2.89e-9 CDCA8     26
#>  2 GO:0005… spindle     26/201    306/11… 1.07e-11  3.15e-9 2.89e-9 CDC20     26
#>  3 GO:0005… spindle     26/201    306/11… 1.07e-11  3.15e-9 2.89e-9 KIF23     26
#>  4 GO:0005… spindle     26/201    306/11… 1.07e-11  3.15e-9 2.89e-9 CENPE     26
#>  5 GO:0005… spindle     26/201    306/11… 1.07e-11  3.15e-9 2.89e-9 ASPM      26
#>  6 GO:0005… spindle     26/201    306/11… 1.07e-11  3.15e-9 2.89e-9 DLGAP5    26
#>  7 GO:0005… spindle     26/201    306/11… 1.07e-11  3.15e-9 2.89e-9 SKA1      26
#>  8 GO:0005… spindle     26/201    306/11… 1.07e-11  3.15e-9 2.89e-9 NUSAP1    26
#>  9 GO:0005… spindle     26/201    306/11… 1.07e-11  3.15e-9 2.89e-9 TPX2      26
#> 10 GO:0005… spindle     26/201    306/11… 1.07e-11  3.15e-9 2.89e-9 TACC3     26
#> # ℹ 908 more rows
…
