How to convert raw counts to TPM for TCGA data and make a heatmap across cancer types | DNA confesses Data speak
…
# map the Entrez ID to gene symbol
gene_symbol<- AnnotationDbi::select(org.Hs.eg.db, keys=hg19_gene_length$gene_id, 
                                    columns="SYMBOL", keytype="ENTREZID")

all.equal(hg19_gene_length$gene_id, gene_symbol$ENTREZID)

#> [1] TRUE

hg19_gene_length$symbol<- gene_symbol$SYMBOL

hg19_gene_length

#> # A tibble: 23,459 × 3
#>    gene_id   exon_length symbol    
#>    <chr>           <int> <chr>     
#>  1 1                4309 A1BG      
#>  2 10               1317 NAT2      
#>  3 100              1532 ADA       
#>  4 1000             4473 CDH2      
#>  5 10000            7459 AKT3      
#>  6 100008586         466 GAGE12F   
#>  7 100009676        2784 ZBTB11-AS1
#>  8 10001            2753 MED6      
#>  9 10002            2913 NR2E3     
#> 10 10003            5056 NAALAD2   
#> # … with 23,449 more rows
…
