Partial least square regression for marker gene identification in scRNAseq data | Chatomics
…
pls_workflow <- workflow() %>% 
  add_recipe(pls_recipe) %>% 
  add_model(pls_spec)

pls_fit <- fit(pls_workflow, data = data_train)

tidy(pls_fit) %>%
  filter(!term %in% c("NK", "B")) %>%
        filter(component == 1, value !=0) %>%
        arrange(desc(abs(value))) 

#> # A tibble: 200 × 4
#>    term     value type       component
#>    <chr>    <dbl> <chr>          <dbl>
#>  1 NKG7    -0.190 predictors         1
#>  2 GZMB    -0.184 predictors         1
#>  3 GZMA    -0.183 predictors         1
#>  4 HLA-DRA  0.182 predictors         1
#>  5 PRF1    -0.180 predictors         1
#>  6 CTSW    -0.179 predictors         1
#>  7 GNLY    -0.177 predictors         1
#>  8 CD74     0.174 predictors         1
#>  9 CST7    -0.172 predictors         1
#> 10 FGFBP2  -0.168 predictors         1
#> # … with 190 more rows
…
