How to test if two distributions are different | DNA confesses Data speak
…
Two observations:

EMD between \(N(0,1)\) and \(N(0.1,1)\) is smaller than EMD between \(N(0,1)\) and \(N(0,1.2)\)

increasing the sample size will increase the EMD too!

The EMD score increases as the distributions become increasingly dissimilar, but we have no framework for estimating the significance of a particular EMD score. EMDomics uses a permutation-based method to calculate a q-value that is interpreted analogously to a p-value.

The EMDomics packages implemented the permutation test for multiple genes. Let me do it for a single gene.

res<- test_distribution(1000, 0, 0, 1, 1.2)
res$df

## # A tibble: 2,000 x 2
##    group   value
##    <chr>   <dbl>
##  1 x     -0.560 
##  2 y      0.793 
##  3 x     -0.230 
##  4 y     -2.46  
##  5 x      1.56  
##  6 y     -1.80  
##  7 x      0.0705
##  8 y      1.77  
##  9 x      0.129 
## 10 y      1.75  
## # … with 1,990 more rows
…
